%YAML 1.1
%TAG !u! tag:unity3d.com,2011:
--- !u!74 &7400000
AnimationClip:
  m_ObjectHideFlags: 0
  m_PrefabParentObject: {fileID: 0}
  m_PrefabInternal: {fileID: 0}
  m_Name: ShowCapsule
  serializedVersion: 6
  m_Legacy: 0
  m_Compressed: 0
  m_UseHighQualityCurve: 1
  m_RotationCurves:
  - curve:
      serializedVersion: 2
      m_Curve:
      - time: 0
        value: {x: 0, y: 0, z: .229791701, w: -.973239839}
        inSlope: {x: 0, y: 0, z: -.142479837, w: -.0334560871}
        outSlope: {x: 0, y: 0, z: -.142479837, w: -.0334560871}
        tangentMode: 0
      - time: .0166666675
        value: {x: 0, y: 0, z: .227417037, w: -.973797441}
        inSlope: {x: 0, y: 0, z: -.142520517, w: -.0332844257}
        outSlope: {x: 0, y: 0, z: -.142520517, w: -.0332844257}
        tangentMode: 0
      - time: .0333333351
        value: {x: 0, y: 0, z: .225041017, w: -.97434932}
        inSlope: {x: 0, y: 0, z: -.14259471, w: -.0329357386}
        outSlope: {x: 0, y: 0, z: -.14259471, w: -.0329357386}
        tangentMode: 0
      - time: .0500000045
        value: {x: 0, y: 0, z: .222663879, w: -.974895298}
        inSlope: {x: 0, y: 0, z: -.142674297, w: -.0325852633}
        outSlope: {x: 0, y: 0, z: -.142674297, w: -.0325852633}
        tangentMode: 0
      - time: .0666666701
        value: {x: 0, y: 0, z: .220285207, w: -.975435495}
        inSlope: {x: 0, y: 0, z: -.142760143, w: -.0322383679}
        outSlope: {x: 0, y: 0, z: -.142760143, w: -.0322383679}
        tangentMode: 0
      - time: .0833333358
        value: {x: 0, y: 0, z: .217905208, w: -.975969911}
        inSlope: {x: 0, y: 0, z: -.142838821, w: -.0318914689}
        outSlope: {x: 0, y: 0, z: -.142838821, w: -.0318914689}
        tangentMode: 0
      - time: .100000001
        value: {x: 0, y: 0, z: .215523914, w: -.976498544}
        inSlope: {x: 0, y: 0, z: -.142909005, w: -.0315427817}
        outSlope: {x: 0, y: 0, z: -.142909005, w: -.0315427817}
        tangentMode: 0
      - time: .116666667
        value: {x: 0, y: 0, z: .213141575, w: -.977021337}
        inSlope: {x: 0, y: 0, z: -.142985404, w: -.0311940871}
        outSlope: {x: 0, y: 0, z: -.142985404, w: -.0311940871}
        tangentMode: 0
      - time: .13333334
        value: {x: 0, y: 0, z: .210757732, w: -.977538347}
        inSlope: {x: 0, y: 0, z: -.143068105, w: -.0308453999}
        outSlope: {x: 0, y: 0, z: -.143068105, w: -.0308453999}
        tangentMode: 0
      - time: .150000006
        value: {x: 0, y: 0, z: .208372638, w: -.978049517}
        inSlope: {x: 0, y: 0, z: -.143135652, w: -.0304949302}
        outSlope: {x: 0, y: 0, z: -.143135652, w: -.0304949302}
        tangentMode: 0
      - time: .166666672
        value: {x: 0, y: 0, z: .205986544, w: -.978554845}
        inSlope: {x: 0, y: 0, z: -.14320986, w: -.0301462431}
        outSlope: {x: 0, y: 0, z: -.14320986, w: -.0301462431}
        tangentMode: 0
      - time: .183333337
        value: {x: 0, y: 0, z: .203598976, w: -.979054391}
        inSlope: {x: 0, y: 0, z: -.143290326, w: -.0297975559}
        outSlope: {x: 0, y: 0, z: -.143290326, w: -.0297975559}
        tangentMode: 0
      - time: .200000003
        value: {x: 0, y: 0, z: .201210201, w: -.979548097}
        inSlope: {x: 0, y: 0, z: -.143355146, w: -.0294452924}
        outSlope: {x: 0, y: 0, z: -.143355146, w: -.0294452924}
        tangentMode: 0
      - time: .216666669
        value: {x: 0, y: 0, z: .198820472, w: -.980035901}
        inSlope: {x: 0, y: 0, z: -.143426672, w: -.0290966053}
        outSlope: {x: 0, y: 0, z: -.143426672, w: -.0290966053}
        tangentMode: 0
      - time: .233333334
        value: {x: 0, y: 0, z: .196429312, w: -.980517983}
        inSlope: {x: 0, y: 0, z: -.143504009, w: -.0287497062}
        outSlope: {x: 0, y: 0, z: -.143504009, w: -.0287497062}
        tangentMode: 0
      - time: .25
        value: {x: 0, y: 0, z: .194037005, w: -.980994225}
        inSlope: {x: 0, y: 0, z: -.143573672, w: -.0283992179}
        outSlope: {x: 0, y: 0, z: -.143573672, w: -.0283992179}
        tangentMode: 0
      - time: .266666681
        value: {x: 0, y: 0, z: .191643521, w: -.981464624}
        inSlope: {x: 0, y: 0, z: -.14363575, w: -.0280469432}
        outSlope: {x: 0, y: 0, z: -.14363575, w: -.0280469432}
        tangentMode: 0
      - time: .283333361
        value: {x: 0, y: 0, z: .189249143, w: -.981929123}
        inSlope: {x: 0, y: 0, z: -.143703699, w: -.0276946798}
        outSlope: {x: 0, y: 0, z: -.143703699, w: -.0276946798}
        tangentMode: 0
      - time: .300000042
        value: {x: 0, y: 0, z: .186853394, w: -.982387781}
        inSlope: {x: 0, y: 0, z: -.143777907, w: -.0273459926}
        outSlope: {x: 0, y: 0, z: -.143777907, w: -.0273459926}
        tangentMode: 0
      - time: .316666722
        value: {x: 0, y: 0, z: .184456542, w: -.982840657}
        inSlope: {x: 0, y: 0, z: -.143836915, w: -.0269955173}
        outSlope: {x: 0, y: 0, z: -.143836915, w: -.0269955173}
        tangentMode: 0
      - time: .333333403
        value: {x: 0, y: 0, z: .182058826, w: -.983287632}
        inSlope: {x: 0, y: 0, z: -.143902183, w: -.026645042}
        outSlope: {x: 0, y: 0, z: -.143902183, w: -.026645042}
        tangentMode: 0
      - time: .350000083
        value: {x: 0, y: 0, z: .179659799, w: -.983728826}
        inSlope: {x: 0, y: 0, z: -.143973708, w: -.0262945667}
        outSlope: {x: 0, y: 0, z: -.143973708, w: -.0262945667}
        tangentMode: 0
      - time: .366666764
        value: {x: 0, y: 0, z: .177259699, w: -.984164119}
        inSlope: {x: 0, y: 0, z: -.144030929, w: -.0259405151}
        outSlope: {x: 0, y: 0, z: -.144030929, w: -.0259405151}
        tangentMode: 0
      - time: .383333445
        value: {x: 0, y: 0, z: .174858764, w: -.984593511}
        inSlope: {x: 0, y: 0, z: -.144093513, w: -.0255900398}
        outSlope: {x: 0, y: 0, z: -.144093513, w: -.0255900398}
        tangentMode: 0
      - time: .400000125
        value: {x: 0, y: 0, z: .172456577, w: -.985017121}
        inSlope: {x: 0, y: 0, z: -.144162357, w: -.0252395663}
        outSlope: {x: 0, y: 0, z: -.144162357, w: -.0252395663}
        tangentMode: 0
      - time: .416666806
        value: {x: 0, y: 0, z: .170053348, w: -.98543483}
        inSlope: {x: 0, y: 0, z: -.144223601, w: -.024889091}
        outSlope: {x: 0, y: 0, z: -.144223601, w: -.024889091}
        tangentMode: 0
      - time: .433333486
        value: {x: 0, y: 0, z: .16764912, w: -.985846758}
        inSlope: {x: 0, y: 0, z: -.144269645, w: -.0245350394}
        outSlope: {x: 0, y: 0, z: -.144269645, w: -.0245350394}
        tangentMode: 0
      - time: .450000167
        value: {x: 0, y: 0, z: .165244356, w: -.986252666}
        inSlope: {x: 0, y: 0, z: -.144329548, w: -.0241809878}
        outSlope: {x: 0, y: 0, z: -.144329548, w: -.0241809878}
        tangentMode: 0
      - time: .466666847
        value: {x: 0, y: 0, z: .162838131, w: -.986652792}
        inSlope: {x: 0, y: 0, z: -.144401968, w: -.0238323007}
        outSlope: {x: 0, y: 0, z: -.144401968, w: -.0238323007}
        tangentMode: 0
      - time: .483333528
        value: {x: 0, y: 0, z: .160430953, w: -.987047076}
        inSlope: {x: 0, y: 0, z: -.144452602, w: -.0234782696}
        outSlope: {x: 0, y: 0, z: -.144452602, w: -.0234782696}
        tangentMode: 0
      - time: .500000179
        value: {x: 0, y: 0, z: .158023044, w: -.9874354}
        inSlope: {x: 0, y: 0, z: -.144509956, w: -.0231260285}
        outSlope: {x: 0, y: 0, z: -.144509956, w: -.0231260285}
        tangentMode: 0
      - time: .51666683
        value: {x: 0, y: 0, z: .155613959, w: -.987817943}
        inSlope: {x: 0, y: 0, z: -.144572541, w: -.0227755532}
        outSlope: {x: 0, y: 0, z: -.144572541, w: -.0227755532}
        tangentMode: 0
      - time: .53333348
        value: {x: 0, y: 0, z: .153203964, w: -.988194585}
        inSlope: {x: 0, y: 0, z: -.144620374, w: -.0224215016}
        outSlope: {x: 0, y: 0, z: -.144620374, w: -.0224215016}
        tangentMode: 0
      - time: .550000131
        value: {x: 0, y: 0, z: .150793284, w: -.988565326}
        inSlope: {x: 0, y: 0, z: -.144675359, w: -.0220692363}
        outSlope: {x: 0, y: 0, z: -.144675359, w: -.0220692363}
        tangentMode: 0
      - time: .566666782
        value: {x: 0, y: 0, z: .148381457, w: -.988930225}
        inSlope: {x: 0, y: 0, z: -.144735709, w: -.0217169728}
        outSlope: {x: 0, y: 0, z: -.144735709, w: -.0217169728}
        tangentMode: 0
      - time: .583333433
        value: {x: 0, y: 0, z: .145968765, w: -.989289224}
        inSlope: {x: 0, y: 0, z: -.144780859, w: -.0213611331}
        outSlope: {x: 0, y: 0, z: -.144780859, w: -.0213611331}
        tangentMode: 0
      - time: .600000083
        value: {x: 0, y: 0, z: .143555433, w: -.989642262}
        inSlope: {x: 0, y: 0, z: -.144832715, w: -.0210088696}
        outSlope: {x: 0, y: 0, z: -.144832715, w: -.0210088696}
        tangentMode: 0
      - time: .616666734
        value: {x: 0, y: 0, z: .141141012, w: -.989989519}
        inSlope: {x: 0, y: 0, z: -.144890383, w: -.0206566043}
        outSlope: {x: 0, y: 0, z: -.144890383, w: -.0206566043}
        tangentMode: 0
      - time: .633333385
        value: {x: 0, y: 0, z: .138725758, w: -.990330815}
        inSlope: {x: 0, y: 0, z: -.144940451, w: -.0203025527}
        outSlope: {x: 0, y: 0, z: -.144940451, w: -.0203025527}
        tangentMode: 0
      - time: .650000036
        value: {x: 0, y: 0, z: .136309668, w: -.99066627}
        inSlope: {x: 0, y: 0, z: -.144982472, w: -.0199485011}
        outSlope: {x: 0, y: 0, z: -.144982472, w: -.0199485011}
        tangentMode: 0
      - time: .666666687
        value: {x: 0, y: 0, z: .133893013, w: -.990995765}
        inSlope: {x: 0, y: 0, z: -.145030752, w: -.0195944495}
        outSlope: {x: 0, y: 0, z: -.145030752, w: -.0195944495}
        tangentMode: 0
      - time: .683333337
        value: {x: 0, y: 0, z: .131475314, w: -.991319418}
        inSlope: {x: 0, y: 0, z: -.14508529, w: -.0192421861}
        outSlope: {x: 0, y: 0, z: -.14508529, w: -.0192421861}
        tangentMode: 0
      - time: .699999988
        value: {x: 0, y: 0, z: .129056841, w: -.99163717}
        inSlope: {x: 0, y: 0, z: -.145124629, w: -.0188881345}
        outSlope: {x: 0, y: 0, z: -.145124629, w: -.0188881345}
        tangentMode: 0
      - time: .716666639
        value: {x: 0, y: 0, z: .126637831, w: -.991949022}
        inSlope: {x: 0, y: 0, z: -.145170227, w: -.0185340829}
        outSlope: {x: 0, y: 0, z: -.145170227, w: -.0185340829}
        tangentMode: 0
      - time: .73333329
        value: {x: 0, y: 0, z: .124217838, w: -.992254972}
        inSlope: {x: 0, y: 0, z: -.145221859, w: -.0181800295}
        outSlope: {x: 0, y: 0, z: -.145221859, w: -.0181800295}
        tangentMode: 0
      - time: .74999994
        value: {x: 0, y: 0, z: .121797107, w: -.992555022}
        inSlope: {x: 0, y: 0, z: -.145265892, w: -.0178259779}
        outSlope: {x: 0, y: 0, z: -.145265892, w: -.0178259779}
        tangentMode: 0
      - time: .766666591
        value: {x: 0, y: 0, z: .119375646, w: -.992849171}
        inSlope: {x: 0, y: 0, z: -.145302102, w: -.0174701381}
        outSlope: {x: 0, y: 0, z: -.145302102, w: -.0174701381}
        tangentMode: 0
      - time: .783333242
        value: {x: 0, y: 0, z: .116953708, w: -.99313736}
        inSlope: {x: 0, y: 0, z: -.145344123, w: -.0171160866}
        outSlope: {x: 0, y: 0, z: -.145344123, w: -.0171160866}
        tangentMode: 0
      - time: .799999893
        value: {x: 0, y: 0, z: .114530846, w: -.993419707}
        inSlope: {x: 0, y: 0, z: -.145392403, w: -.0167620331}
        outSlope: {x: 0, y: 0, z: -.145392403, w: -.0167620331}
        tangentMode: 0
      - time: .816666543
        value: {x: 0, y: 0, z: .112107299, w: -.993696094}
        inSlope: {x: 0, y: 0, z: -.145425931, w: -.0164061934}
        outSlope: {x: 0, y: 0, z: -.145425931, w: -.0164061934}
        tangentMode: 0
      - time: .833333194
        value: {x: 0, y: 0, z: .10968332, w: -.993966579}
        inSlope: {x: 0, y: 0, z: -.145465493, w: -.0160521418}
        outSlope: {x: 0, y: 0, z: -.145465493, w: -.0160521418}
        tangentMode: 0
      - time: .849999845
        value: {x: 0, y: 0, z: .107258454, w: -.994231164}
        inSlope: {x: 0, y: 0, z: -.145511314, w: -.0156980902}
        outSlope: {x: 0, y: 0, z: -.145511314, w: -.0156980902}
        tangentMode: 0
      - time: .866666496
        value: {x: 0, y: 0, z: .104832947, w: -.994489849}
        inSlope: {x: 0, y: 0, z: -.14554216, w: -.0153422505}
        outSlope: {x: 0, y: 0, z: -.14554216, w: -.0153422505}
        tangentMode: 0
      - time: .883333147
        value: {x: 0, y: 0, z: .102407053, w: -.994742572}
        inSlope: {x: 0, y: 0, z: -.14557904, w: -.0149864107}
        outSlope: {x: 0, y: 0, z: -.14557904, w: -.0149864107}
        tangentMode: 0
      - time: .899999797
        value: {x: 0, y: 0, z: .0999803171, w: -.994989395}
        inSlope: {x: 0, y: 0, z: -.145622179, w: -.0146323582}
        outSlope: {x: 0, y: 0, z: -.145622179, w: -.0146323582}
        tangentMode: 0
      - time: .916666448
        value: {x: 0, y: 0, z: .097552985, w: -.995230317}
        inSlope: {x: 0, y: 0, z: -.145657718, w: -.0142783057}
        outSlope: {x: 0, y: 0, z: -.145657718, w: -.0142783057}
        tangentMode: 0
      - time: .933333099
        value: {x: 0, y: 0, z: .0951250643, w: -.995465338}
        inSlope: {x: 0, y: 0, z: -.145684987, w: -.013922466}
        outSlope: {x: 0, y: 0, z: -.145684987, w: -.013922466}
        tangentMode: 0
      - time: .94999975
        value: {x: 0, y: 0, z: .0926968232, w: -.995694399}
        inSlope: {x: 0, y: 0, z: -.145718291, w: -.0135666262}
        outSlope: {x: 0, y: 0, z: -.145718291, w: -.0135666262}
        tangentMode: 0
      - time: .9666664
        value: {x: 0, y: 0, z: .0902677923, w: -.995917559}
        inSlope: {x: 0, y: 0, z: -.145758078, w: -.0132107865}
        outSlope: {x: 0, y: 0, z: -.145758078, w: -.0132107865}
        tangentMode: 0
      - time: .983333051
        value: {x: 0, y: 0, z: .0878382251, w: -.996134758}
        inSlope: {x: 0, y: 0, z: -.145775512, w: -.0128531577}
        outSlope: {x: 0, y: 0, z: -.145775512, w: -.0128531577}
        tangentMode: 0
      - time: .999999702
        value: {x: 0, y: 0, z: .0854086131, w: -.996345997}
        inSlope: {x: 0, y: 0, z: -.145813465, w: -.0124990838}
        outSlope: {x: 0, y: 0, z: -.145813465, w: -.0124990838}
        tangentMode: 0
      - time: 1.01666641
        value: {x: 0, y: 0, z: .0829777718, w: -.996551394}
        inSlope: {x: 0, y: 0, z: -.145850807, w: -.0121450312}
        outSlope: {x: 0, y: 0, z: -.145850807, w: -.0121450312}
        tangentMode: 0
      - time: 1.03333306
        value: {x: 0, y: 0, z: .0805469155, w: -.996750832}
        inSlope: {x: 0, y: 0, z: -.145865813, w: -.0117874257}
        outSlope: {x: 0, y: 0, z: -.145865813, w: -.0117874257}
        tangentMode: 0
      - time: 1.04999971
        value: {x: 0, y: 0, z: .0781155825, w: -.996944308}
        inSlope: {x: 0, y: 0, z: -.145901129, w: -.011431586}
        outSlope: {x: 0, y: 0, z: -.145901129, w: -.011431586}
        tangentMode: 0
      - time: 1.06666636
        value: {x: 0, y: 0, z: .075683549, w: -.997131884}
        inSlope: {x: 0, y: 0, z: -.145935774, w: -.0110775344}
        outSlope: {x: 0, y: 0, z: -.145935774, w: -.0110775344}
        tangentMode: 0
      - time: 1.08333302
        value: {x: 0, y: 0, z: .0732510611, w: -.997313559}
        inSlope: {x: 0, y: 0, z: -.145955443, w: -.0107199056}
        outSlope: {x: 0, y: 0, z: -.145955443, w: -.0107199056}
        tangentMode: 0
      - time: 1.09999967
        value: {x: 0, y: 0, z: .0708183721, w: -.997489214}
        inSlope: {x: 0, y: 0, z: -.145981148, w: -.0103640649}
        outSlope: {x: 0, y: 0, z: -.145981148, w: -.0103640649}
        tangentMode: 0
      - time: 1.11666632
        value: {x: 0, y: 0, z: .0683850273, w: -.997659028}
        inSlope: {x: 0, y: 0, z: -.146012887, w: -.0100082252}
        outSlope: {x: 0, y: 0, z: -.146012887, w: -.0100082252}
        tangentMode: 0
      - time: 1.13333297
        value: {x: 0, y: 0, z: .0659512803, w: -.997822821}
        inSlope: {x: 0, y: 0, z: -.146036804, w: -.00965238549}
        outSlope: {x: 0, y: 0, z: -.146036804, w: -.00965238549}
        tangentMode: 0
      - time: 1.14999962
        value: {x: 0, y: 0, z: .0635171384, w: -.997980773}
        inSlope: {x: 0, y: 0, z: -.146053016, w: -.00929654576}
        outSlope: {x: 0, y: 0, z: -.146053016, w: -.00929654576}
        tangentMode: 0
      - time: 1.16666627
        value: {x: 0, y: 0, z: .0610828511, w: -.998132706}
        inSlope: {x: 0, y: 0, z: -.146075249, w: -.00893891696}
        outSlope: {x: 0, y: 0, z: -.146075249, w: -.00893891696}
        tangentMode: 0
      - time: 1.18333292
        value: {x: 0, y: 0, z: .0586479679, w: -.998278737}
        inSlope: {x: 0, y: 0, z: -.14610374, w: -.00858307723}
        outSlope: {x: 0, y: 0, z: -.14610374, w: -.00858307723}
        tangentMode: 0
      - time: 1.19999957
        value: {x: 0, y: 0, z: .0562127307, w: -.998418808}
        inSlope: {x: 0, y: 0, z: -.146117151, w: -.00822723657}
        outSlope: {x: 0, y: 0, z: -.146117151, w: -.00822723657}
        tangentMode: 0
      - time: 1.21666622
        value: {x: 0, y: 0, z: .0537774004, w: -.998552978}
        inSlope: {x: 0, y: 0, z: -.146136612, w: -.0078696087}
        outSlope: {x: 0, y: 0, z: -.146136612, w: -.0078696087}
        tangentMode: 0
      - time: 1.23333287
        value: {x: 0, y: 0, z: .051341515, w: -.998681128}
        inSlope: {x: 0, y: 0, z: -.14616254, w: -.00751376897}
        outSlope: {x: 0, y: 0, z: -.14616254, w: -.00751376897}
        tangentMode: 0
      - time: 1.24999952
        value: {x: 0, y: 0, z: .0489053205, w: -.998803437}
        inSlope: {x: 0, y: 0, z: -.146173373, w: -.00715792831}
        outSlope: {x: 0, y: 0, z: -.146173373, w: -.00715792831}
        tangentMode: 0
      - time: 1.26666617
        value: {x: 0, y: 0, z: .0464690737, w: -.998919725}
        inSlope: {x: 0, y: 0, z: -.14619036, w: -.00680030044}
        outSlope: {x: 0, y: 0, z: -.14619036, w: -.00680030044}
        tangentMode: 0
      - time: 1.28333282
        value: {x: 0, y: 0, z: .0440323129, w: -.999030113}
        inSlope: {x: 0, y: 0, z: -.14621371, w: -.00644446071}
        outSlope: {x: 0, y: 0, z: -.14621371, w: -.00644446071}
        tangentMode: 0
      - time: 1.29999948
        value: {x: 0, y: 0, z: .0415952876, w: -.999134541}
        inSlope: {x: 0, y: 0, z: -.146229029, w: -.00608683191}
        outSlope: {x: 0, y: 0, z: -.146229029, w: -.00608683191}
        tangentMode: 0
      - time: 1.31666613
        value: {x: 0, y: 0, z: .0391580164, w: -.999233007}
        inSlope: {x: 0, y: 0, z: -.146236181, w: -.00573099218}
        outSlope: {x: 0, y: 0, z: -.146236181, w: -.00573099218}
        tangentMode: 0
      - time: 1.33333278
        value: {x: 0, y: 0, z: .0367207527, w: -.999325573}
        inSlope: {x: 0, y: 0, z: -.146249712, w: -.00537515199}
        outSlope: {x: 0, y: 0, z: -.146249712, w: -.00537515199}
        tangentMode: 0
      - time: 1.34999943
        value: {x: 0, y: 0, z: .0342830308, w: -.999412179}
        inSlope: {x: 0, y: 0, z: -.14626959, w: -.00501752365}
        outSlope: {x: 0, y: 0, z: -.14626959, w: -.00501752365}
        tangentMode: 0
      - time: 1.36666608
        value: {x: 0, y: 0, z: .0318451039, w: -.999492824}
        inSlope: {x: 0, y: 0, z: -.146274239, w: -.00465989579}
        outSlope: {x: 0, y: 0, z: -.146274239, w: -.00465989579}
        tangentMode: 0
      - time: 1.38333273
        value: {x: 0, y: 0, z: .0294072274, w: -.999567509}
        inSlope: {x: 0, y: 0, z: -.146285191, w: -.00430405512}
        outSlope: {x: 0, y: 0, z: -.146285191, w: -.00430405512}
        tangentMode: 0
      - time: 1.39999938
        value: {x: 0, y: 0, z: .0269689355, w: -.999636292}
        inSlope: {x: 0, y: 0, z: -.146302402, w: -.00394642726}
        outSlope: {x: 0, y: 0, z: -.146302402, w: -.00394642726}
        tangentMode: 0
      - time: 1.41666603
        value: {x: 0, y: 0, z: .0245304853, w: -.999699056}
        inSlope: {x: 0, y: 0, z: -.146304414, w: -.00358879892}
        outSlope: {x: 0, y: 0, z: -.146304414, w: -.00358879892}
        tangentMode: 0
      - time: 1.43333268
        value: {x: 0, y: 0, z: .0220921263, w: -.999755919}
        inSlope: {x: 0, y: 0, z: -.146312743, w: -.00323474733}
        outSlope: {x: 0, y: 0, z: -.146312743, w: -.00323474733}
        tangentMode: 0
      - time: 1.44999933
        value: {x: 0, y: 0, z: .0196533985, w: -.999806881}
        inSlope: {x: 0, y: 0, z: -.146327317, w: -.002877119}
        outSlope: {x: 0, y: 0, z: -.146327317, w: -.002877119}
        tangentMode: 0
      - time: 1.46666598
        value: {x: 0, y: 0, z: .0172145534, w: -.999851823}
        inSlope: {x: 0, y: 0, z: -.146333948, w: -.00251949066}
        outSlope: {x: 0, y: 0, z: -.146333948, w: -.00251949066}
        tangentMode: 0
      - time: 1.48333263
        value: {x: 0, y: 0, z: .0147756049, w: -.999890864}
        inSlope: {x: 0, y: 0, z: -.146329373, w: -.00216181995}
        outSlope: {x: 0, y: 0, z: -.146329373, w: -.00216181995}
        tangentMode: 0
      - time: 1.5
        value: {x: 0, y: 0, z: .0123368073, w: -.999923885}
        inSlope: {x: 0, y: 0, z: -.146321714, w: -.00198117527}
        outSlope: {x: 0, y: 0, z: -.146321714, w: -.00198117527}
        tangentMode: 0
      m_PreInfinity: 2
      m_PostInfinity: 2
    path: Capsule
  m_CompressedRotationCurves: []
  m_PositionCurves:
  - curve:
      serializedVersion: 2
      m_Curve:
      - time: 0
        value: {x: -.0799999982, y: -3.05999994, z: 0}
        inSlope: {x: .0399999991, y: 1.54666662, z: 0}
        outSlope: {x: .0399999991, y: 1.54666662, z: 0}
        tangentMode: 0
      - time: 1.5
        value: {x: -.0199999996, y: -.74000001, z: 0}
        inSlope: {x: .109999985, y: .769047618, z: 0}
        outSlope: {x: .109999985, y: .769047618, z: 0}
        tangentMode: 0
      - time: 2.66666675
        value: {x: .189999998, y: -.75, z: 0}
        inSlope: {x: -1.77000177, y: .0557142869, z: 0}
        outSlope: {x: -1.77000177, y: .0557142869, z: 0}
        tangentMode: 0
      - time: 2.75
        value: {x: -.119999997, y: -.74000001, z: 0}
        inSlope: {x: 0, y: 0, z: 0}
        outSlope: {x: 0, y: 0, z: 0}
        tangentMode: 0
      - time: 2.83333325
        value: {x: .189999998, y: -.75, z: 0}
        inSlope: {x: 5.36441803e-06, y: -1.71363354e-07, z: 0}
        outSlope: {x: 5.36441803e-06, y: -1.71363354e-07, z: 0}
        tangentMode: 0
      - time: 2.91666675
        value: {x: -.119999997, y: -.74000001, z: 0}
        inSlope: {x: 5.36441803e-06, y: -1.71363354e-07, z: 0}
        outSlope: {x: 5.36441803e-06, y: -1.71363354e-07, z: 0}
        tangentMode: 0
      - time: 3
        value: {x: .189999998, y: -.75, z: 0}
        inSlope: {x: 0, y: 0, z: 0}
        outSlope: {x: 0, y: 0, z: 0}
        tangentMode: 0
      - time: 3.08333325
        value: {x: -.119999997, y: -.74000001, z: 0}
        inSlope: {x: -5.36441803e-06, y: 1.71363354e-07, z: 0}
        outSlope: {x: -5.36441803e-06, y: 1.71363354e-07, z: 0}
        tangentMode: 0
      - time: 3.16666675
        value: {x: .189999998, y: -.75, z: 0}
        inSlope: {x: -5.36441803e-06, y: 1.71363354e-07, z: 0}
        outSlope: {x: -5.36441803e-06, y: 1.71363354e-07, z: 0}
        tangentMode: 0
      - time: 3.25
        value: {x: -.119999997, y: -.74000001, z: 0}
        inSlope: {x: 0, y: 0, z: 0}
        outSlope: {x: 0, y: 0, z: 0}
        tangentMode: 0
      - time: 3.33333325
        value: {x: .189999998, y: -.75, z: 0}
        inSlope: {x: 5.36441803e-06, y: -1.71363354e-07, z: 0}
        outSlope: {x: 5.36441803e-06, y: -1.71363354e-07, z: 0}
        tangentMode: 0
      - time: 3.41666675
        value: {x: -.119999997, y: -.74000001, z: 0}
        inSlope: {x: 5.36441803e-06, y: -1.71363354e-07, z: 0}
        outSlope: {x: 5.36441803e-06, y: -1.71363354e-07, z: 0}
        tangentMode: 0
      - time: 3.5
        value: {x: .189999998, y: -.75, z: 0}
        inSlope: {x: -7.44000721, y: .24000001, z: 0}
        outSlope: {x: -7.44000721, y: .24000001, z: 0}
        tangentMode: 0
      - time: 3.51666665
        value: {x: -.119999997, y: -.74000001, z: 0}
        inSlope: {x: 0, y: 0, z: 0}
        outSlope: {x: 0, y: 0, z: 0}
        tangentMode: 0
      - time: 3.5333333
        value: {x: .189999998, y: -.75, z: 0}
        inSlope: {x: 0, y: 0, z: 0}
        outSlope: {x: 0, y: 0, z: 0}
        tangentMode: 0
      - time: 3.54999995
        value: {x: -.119999997, y: -.74000001, z: 0}
        inSlope: {x: 0, y: 0, z: 0}
        outSlope: {x: 0, y: 0, z: 0}
        tangentMode: 0
      - time: 3.5666666
        value: {x: .189999998, y: -.75, z: 0}
        inSlope: {x: 0, y: 0, z: 0}
        outSlope: {x: 0, y: 0, z: 0}
        tangentMode: 0
      - time: 3.58333325
        value: {x: -.119999997, y: -.74000001, z: 0}
        inSlope: {x: 0, y: 0, z: 0}
        outSlope: {x: 0, y: 0, z: 0}
        tangentMode: 0
      - time: 3.5999999
        value: {x: .189999998, y: -.75, z: 0}
        inSlope: {x: 0, y: 0, z: 0}
        outSlope: {x: 0, y: 0, z: 0}
        tangentMode: 0
      - time: 3.61666656
        value: {x: -.119999997, y: -.74000001, z: 0}
        inSlope: {x: -.00013256073, y: 4.29153442e-06, z: 0}
        outSlope: {x: -.00013256073, y: 4.29153442e-06, z: 0}
        tangentMode: 0
      - time: 3.63333344
        value: {x: .189999998, y: -.75, z: 0}
        inSlope: {x: -.00013256073, y: 4.29153442e-06, z: 0}
        outSlope: {x: -.00013256073, y: 4.29153442e-06, z: 0}
        tangentMode: 0
      - time: 3.6500001
        value: {x: -.119999997, y: -.74000001, z: 0}
        inSlope: {x: 0, y: 0, z: 0}
        outSlope: {x: 0, y: 0, z: 0}
        tangentMode: 0
      - time: 3.66666675
        value: {x: .189999998, y: -.75, z: 0}
        inSlope: {x: 0, y: 0, z: 0}
        outSlope: {x: 0, y: 0, z: 0}
        tangentMode: 0
      - time: 3.6833334
        value: {x: -.119999997, y: -.74000001, z: 0}
        inSlope: {x: -18.6000175, y: .600000024, z: 0}
        outSlope: {x: -18.6000175, y: .600000024, z: 0}
        tangentMode: 0
      m_PreInfinity: 2
      m_PostInfinity: 2
    path: Capsule
  m_ScaleCurves:
  - curve:
      serializedVersion: 2
      m_Curve:
      - time: 0
        value: {x: .5, y: .5, z: 1}
        inSlope: {x: .624919236, y: .624919355, z: 1.24983871}
        outSlope: {x: .624919236, y: .624919355, z: 1.24983871}
        tangentMode: 0
      - time: 1.5
        value: {x: 1.43737888, y: 1.437379, z: 2.87475801}
        inSlope: {x: .696146131, y: .696146011, z: 1.39229202}
        outSlope: {x: .696146131, y: .696146011, z: 1.39229202}
        tangentMode: 0
      - time: 2.5
        value: {x: 2.20475197, y: 2.20475173, z: 4.40950346}
        inSlope: {x: .383686543, y: .383686364, z: .767372727}
        outSlope: {x: .383686543, y: .383686364, z: .767372727}
        tangentMode: 0
      - time: 2.58333325
        value: {x: 2.20475197, y: 2.20475173, z: 4.40950346}
        inSlope: {x: 0, y: 0, z: 0}
        outSlope: {x: 0, y: 0, z: 0}
        tangentMode: 0
      m_PreInfinity: 2
      m_PostInfinity: 2
    path: Capsule
  m_FloatCurves:
  - curve:
      serializedVersion: 2
      m_Curve:
      - time: 0
        value: 1
        inSlope: Infinity
        outSlope: Infinity
        tangentMode: 31
      - time: 3.6833334
        value: 1
        inSlope: Infinity
        outSlope: Infinity
        tangentMode: 31
      - time: 3.7166667
        value: 0
        inSlope: Infinity
        outSlope: Infinity
        tangentMode: 31
      m_PreInfinity: 2
      m_PostInfinity: 2
    attribute: m_IsActive
    path: Capsule
    classID: 1
    script: {fileID: 0}
  m_PPtrCurves: []
  m_SampleRate: 60
  m_WrapMode: 0
  m_Bounds:
    m_Center: {x: 0, y: 0, z: 0}
    m_Extent: {x: 0, y: 0, z: 0}
  m_ClipBindingConstant:
    genericBindings:
    - path: 232101919
      attribute: 1
      script: {fileID: 0}
      classID: 4
      customType: 0
      isPPtrCurve: 0
    - path: 232101919
      attribute: 2
      script: {fileID: 0}
      classID: 4
      customType: 0
      isPPtrCurve: 0
    - path: 232101919
      attribute: 3
      script: {fileID: 0}
      classID: 4
      customType: 0
      isPPtrCurve: 0
    - path: 232101919
      attribute: 2086281974
      script: {fileID: 0}
      classID: 1
      customType: 0
      isPPtrCurve: 0
    pptrCurveMapping: []
  m_AnimationClipSettings:
    serializedVersion: 2
    m_StartTime: 0
    m_StopTime: 3.7166667
    m_OrientationOffsetY: 0
    m_Level: 0
    m_CycleOffset: 0
    m_LoopTime: 0
    m_LoopBlend: 0
    m_LoopBlendOrientation: 0
    m_LoopBlendPositionY: 0
    m_LoopBlendPositionXZ: 0
    m_KeepOriginalOrientation: 0
    m_KeepOriginalPositionY: 1
    m_KeepOriginalPositionXZ: 0
    m_HeightFromFeet: 0
    m_Mirror: 0
  m_EditorCurves:
  - curve:
      serializedVersion: 2
      m_Curve:
      - time: 0
        value: -.0799999982
        inSlope: .0399999991
        outSlope: .0399999991
        tangentMode: 10
      - time: 1.5
        value: -.0199999996
        inSlope: .109999985
        outSlope: .109999985
        tangentMode: 10
      - time: 2.66666675
        value: .189999998
        inSlope: -1.77000177
        outSlope: -1.77000177
        tangentMode: 10
      - time: 2.75
        value: -.119999997
        inSlope: 0
        outSlope: 0
        tangentMode: 10
      - time: 2.83333325
        value: .189999998
        inSlope: 5.36441803e-06
        outSlope: 5.36441803e-06
        tangentMode: 10
      - time: 2.91666675
        value: -.119999997
        inSlope: 5.36441803e-06
        outSlope: 5.36441803e-06
        tangentMode: 10
      - time: 3
        value: .189999998
        inSlope: 0
        outSlope: 0
        tangentMode: 10
      - time: 3.08333325
        value: -.119999997
        inSlope: -5.36441803e-06
        outSlope: -5.36441803e-06
        tangentMode: 10
      - time: 3.16666675
        value: .189999998
        inSlope: -5.36441803e-06
        outSlope: -5.36441803e-06
        tangentMode: 10
      - time: 3.25
        value: -.119999997
        inSlope: 0
        outSlope: 0
        tangentMode: 10
      - time: 3.33333325
        value: .189999998
        inSlope: 5.36441803e-06
        outSlope: 5.36441803e-06
        tangentMode: 10
      - time: 3.41666675
        value: -.119999997
        inSlope: 5.36441803e-06
        outSlope: 5.36441803e-06
        tangentMode: 10
      - time: 3.5
        value: .189999998
        inSlope: -7.44000721
        outSlope: -7.44000721
        tangentMode: 10
      - time: 3.51666665
        value: -.119999997
        inSlope: 0
        outSlope: 0
        tangentMode: 10
      - time: 3.5333333
        value: .189999998
        inSlope: 0
        outSlope: 0
        tangentMode: 10
      - time: 3.54999995
        value: -.119999997
        inSlope: 0
        outSlope: 0
        tangentMode: 10
      - time: 3.5666666
        value: .189999998
        inSlope: 0
        outSlope: 0
        tangentMode: 10
      - time: 3.58333325
        value: -.119999997
        inSlope: 0
        outSlope: 0
        tangentMode: 10
      - time: 3.5999999
        value: .189999998
        inSlope: 0
        outSlope: 0
        tangentMode: 10
      - time: 3.61666656
        value: -.119999997
        inSlope: -.00013256073
        outSlope: -.00013256073
        tangentMode: 10
      - time: 3.63333344
        value: .189999998
        inSlope: -.00013256073
        outSlope: -.00013256073
        tangentMode: 10
      - time: 3.6500001
        value: -.119999997
        inSlope: 0
        outSlope: 0
        tangentMode: 10
      - time: 3.66666675
        value: .189999998
        inSlope: 0
        outSlope: 0
        tangentMode: 10
      - time: 3.6833334
        value: -.119999997
        inSlope: -18.6000175
        outSlope: -18.6000175
        tangentMode: 10
      m_PreInfinity: 2
      m_PostInfinity: 2
    attribute: m_LocalPosition.x
    path: Capsule
    classID: 4
    script: {fileID: 0}
  - curve:
      serializedVersion: 2
      m_Curve:
      - time: 0
        value: -3.05999994
        inSlope: 1.54666662
        outSlope: 1.54666662
        tangentMode: 10
      - time: 1.5
        value: -.74000001
        inSlope: .769047618
        outSlope: .769047618
        tangentMode: 10
      - time: 2.66666675
        value: -.75
        inSlope: .0557142869
        outSlope: .0557142869
        tangentMode: 10
      - time: 2.75
        value: -.74000001
        inSlope: 0
        outSlope: 0
        tangentMode: 10
      - time: 2.83333325
        value: -.75
        inSlope: -1.71363354e-07
        outSlope: -1.71363354e-07
        tangentMode: 10
      - time: 2.91666675
        value: -.74000001
        inSlope: -1.71363354e-07
        outSlope: -1.71363354e-07
        tangentMode: 10
      - time: 3
        value: -.75
        inSlope: 0
        outSlope: 0
        tangentMode: 10
      - time: 3.08333325
        value: -.74000001
        inSlope: 1.71363354e-07
        outSlope: 1.71363354e-07
        tangentMode: 10
      - time: 3.16666675
        value: -.75
        inSlope: 1.71363354e-07
        outSlope: 1.71363354e-07
        tangentMode: 10
      - time: 3.25
        value: -.74000001
        inSlope: 0
        outSlope: 0
        tangentMode: 10
      - time: 3.33333325
        value: -.75
        inSlope: -1.71363354e-07
        outSlope: -1.71363354e-07
        tangentMode: 10
      - time: 3.41666675
        value: -.74000001
        inSlope: -1.71363354e-07
        outSlope: -1.71363354e-07
        tangentMode: 10
      - time: 3.5
        value: -.75
        inSlope: .24000001
        outSlope: .24000001
        tangentMode: 10
      - time: 3.51666665
        value: -.74000001
        inSlope: 0
        outSlope: 0
        tangentMode: 10
      - time: 3.5333333
        value: -.75
        inSlope: 0
        outSlope: 0
        tangentMode: 10
      - time: 3.54999995
        value: -.74000001
        inSlope: 0
        outSlope: 0
        tangentMode: 10
      - time: 3.5666666
        value: -.75
        inSlope: 0
        outSlope: 0
        tangentMode: 10
      - time: 3.58333325
        value: -.74000001
        inSlope: 0
        outSlope: 0
        tangentMode: 10
      - time: 3.5999999
        value: -.75
        inSlope: 0
        outSlope: 0
        tangentMode: 10
      - time: 3.61666656
        value: -.74000001
        inSlope: 4.29153442e-06
        outSlope: 4.29153442e-06
        tangentMode: 10
      - time: 3.63333344
        value: -.75
        inSlope: 4.29153442e-06
        outSlope: 4.29153442e-06
        tangentMode: 10
      - time: 3.6500001
        value: -.74000001
        inSlope: 0
        outSlope: 0
        tangentMode: 10
      - time: 3.66666675
        value: -.75
        inSlope: 0
        outSlope: 0
        tangentMode: 10
      - time: 3.6833334
        value: -.74000001
        inSlope: .600000024
        outSlope: .600000024
        tangentMode: 10
      m_PreInfinity: 2
      m_PostInfinity: 2
    attribute: m_LocalPosition.y
    path: Capsule
    classID: 4
    script: {fileID: 0}
  - curve:
      serializedVersion: 2
      m_Curve:
      - time: 0
        value: 0
        inSlope: 0
        outSlope: 0
        tangentMode: 10
      - time: 1.5
        value: 0
        inSlope: 0
        outSlope: 0
        tangentMode: 10
      - time: 2.66666675
        value: 0
        inSlope: 0
        outSlope: 0
        tangentMode: 10
      - time: 2.75
        value: 0
        inSlope: 0
        outSlope: 0
        tangentMode: 10
      - time: 2.83333325
        value: 0
        inSlope: 0
        outSlope: 0
        tangentMode: 10
      - time: 2.91666675
        value: 0
        inSlope: 0
        outSlope: 0
        tangentMode: 10
      - time: 3
        value: 0
        inSlope: 0
        outSlope: 0
        tangentMode: 10
      - time: 3.08333325
        value: 0
        inSlope: 0
        outSlope: 0
        tangentMode: 10
      - time: 3.16666675
        value: 0
        inSlope: 0
        outSlope: 0
        tangentMode: 10
      - time: 3.25
        value: 0
        inSlope: 0
        outSlope: 0
        tangentMode: 10
      - time: 3.33333325
        value: 0
        inSlope: 0
        outSlope: 0
        tangentMode: 10
      - time: 3.41666675
        value: 0
        inSlope: 0
        outSlope: 0
        tangentMode: 10
      - time: 3.5
        value: 0
        inSlope: 0
        outSlope: 0
        tangentMode: 10
      - time: 3.51666665
        value: 0
        inSlope: 0
        outSlope: 0
        tangentMode: 10
      - time: 3.5333333
        value: 0
        inSlope: 0
        outSlope: 0
        tangentMode: 10
      - time: 3.54999995
        value: 0
        inSlope: 0
        outSlope: 0
        tangentMode: 10
      - time: 3.5666666
        value: 0
        inSlope: 0
        outSlope: 0
        tangentMode: 10
      - time: 3.58333325
        value: 0
        inSlope: 0
        outSlope: 0
        tangentMode: 10
      - time: 3.5999999
        value: 0
        inSlope: 0
        outSlope: 0
        tangentMode: 10
      - time: 3.61666656
        value: 0
        inSlope: 0
        outSlope: 0
        tangentMode: 10
      - time: 3.63333344
        value: 0
        inSlope: 0
        outSlope: 0
        tangentMode: 10
      - time: 3.6500001
        value: 0
        inSlope: 0
        outSlope: 0
        tangentMode: 10
      - time: 3.66666675
        value: 0
        inSlope: 0
        outSlope: 0
        tangentMode: 10
      - time: 3.6833334
        value: 0
        inSlope: 0
        outSlope: 0
        tangentMode: 10
      m_PreInfinity: 2
      m_PostInfinity: 2
    attribute: m_LocalPosition.z
    path: Capsule
    classID: 4
    script: {fileID: 0}
  - curve:
      serializedVersion: 2
      m_Curve:
      - time: 0
        value: .5
        inSlope: .624919236
        outSlope: .624919236
        tangentMode: 10
      - time: 1.5
        value: 1.43737888
        inSlope: .696146131
        outSlope: .696146131
        tangentMode: 10
      - time: 2.5
        value: 2.20475197
        inSlope: .383686543
        outSlope: .383686543
        tangentMode: 10
      - time: 2.58333325
        value: 2.20475197
        inSlope: 0
        outSlope: 0
        tangentMode: 10
      m_PreInfinity: 2
      m_PostInfinity: 2
    attribute: m_LocalScale.x
    path: Capsule
    classID: 4
    script: {fileID: 0}
  - curve:
      serializedVersion: 2
      m_Curve:
      - time: 0
        value: .5
        inSlope: .624919355
        outSlope: .624919355
        tangentMode: 10
      - time: 1.5
        value: 1.437379
        inSlope: .696146011
        outSlope: .696146011
        tangentMode: 10
      - time: 2.5
        value: 2.20475173
        inSlope: .383686364
        outSlope: .383686364
        tangentMode: 10
      - time: 2.58333325
        value: 2.20475173
        inSlope: 0
        outSlope: 0
        tangentMode: 10
      m_PreInfinity: 2
      m_PostInfinity: 2
    attribute: m_LocalScale.y
    path: Capsule
    classID: 4
    script: {fileID: 0}
  - curve:
      serializedVersion: 2
      m_Curve:
      - time: 0
        value: 1
        inSlope: 1.24983871
        outSlope: 1.24983871
        tangentMode: 10
      - time: 1.5
        value: 2.87475801
        inSlope: 1.39229202
        outSlope: 1.39229202
        tangentMode: 10
      - time: 2.5
        value: 4.40950346
        inSlope: .767372727
        outSlope: .767372727
        tangentMode: 10
      - time: 2.58333325
        value: 4.40950346
        inSlope: 0
        outSlope: 0
        tangentMode: 10
      m_PreInfinity: 2
      m_PostInfinity: 2
    attribute: m_LocalScale.z
    path: Capsule
    classID: 4
    script: {fileID: 0}
  - curve:
      serializedVersion: 2
      m_Curve:
      - time: 0
        value: 0
        inSlope: 0
        outSlope: 0
        tangentMode: 0
      - time: .0166666675
        value: 0
        inSlope: 0
        outSlope: 0
        tangentMode: 0
      - time: .0333333351
        value: 0
        inSlope: 0
        outSlope: 0
        tangentMode: 0
      - time: .0500000045
        value: 0
        inSlope: 0
        outSlope: 0
        tangentMode: 0
      - time: .0666666701
        value: 0
        inSlope: 0
        outSlope: 0
        tangentMode: 0
      - time: .0833333358
        value: 0
        inSlope: 0
        outSlope: 0
        tangentMode: 0
      - time: .100000001
        value: 0
        inSlope: 0
        outSlope: 0
        tangentMode: 0
      - time: .116666667
        value: 0
        inSlope: 0
        outSlope: 0
        tangentMode: 0
      - time: .13333334
        value: 0
        inSlope: 0
        outSlope: 0
        tangentMode: 0
      - time: .150000006
        value: 0
        inSlope: 0
        outSlope: 0
        tangentMode: 0
      - time: .166666672
        value: 0
        inSlope: 0
        outSlope: 0
        tangentMode: 0
      - time: .183333337
        value: 0
        inSlope: 0
        outSlope: 0
        tangentMode: 0
      - time: .200000003
        value: 0
        inSlope: 0
        outSlope: 0
        tangentMode: 0
      - time: .216666669
        value: 0
        inSlope: 0
        outSlope: 0
        tangentMode: 0
      - time: .233333334
        value: 0
        inSlope: 0
        outSlope: 0
        tangentMode: 0
      - time: .25
        value: 0
        inSlope: 0
        outSlope: 0
        tangentMode: 0
      - time: .266666681
        value: 0
        inSlope: 0
        outSlope: 0
        tangentMode: 0
      - time: .283333361
        value: 0
        inSlope: 0
        outSlope: 0
        tangentMode: 0
      - time: .300000042
        value: 0
        inSlope: 0
        outSlope: 0
        tangentMode: 0
      - time: .316666722
        value: 0
        inSlope: 0
        outSlope: 0
        tangentMode: 0
      - time: .333333403
        value: 0
        inSlope: 0
        outSlope: 0
        tangentMode: 0
      - time: .350000083
        value: 0
        inSlope: 0
        outSlope: 0
        tangentMode: 0
      - time: .366666764
        value: 0
        inSlope: 0
        outSlope: 0
        tangentMode: 0
      - time: .383333445
        value: 0
        inSlope: 0
        outSlope: 0
        tangentMode: 0
      - time: .400000125
        value: 0
        inSlope: 0
        outSlope: 0
        tangentMode: 0
      - time: .416666806
        value: 0
        inSlope: 0
        outSlope: 0
        tangentMode: 0
      - time: .433333486
        value: 0
        inSlope: 0
        outSlope: 0
        tangentMode: 0
      - time: .450000167
        value: 0
        inSlope: 0
        outSlope: 0
        tangentMode: 0
      - time: .466666847
        value: 0
        inSlope: 0
        outSlope: 0
        tangentMode: 0
      - time: .483333528
        value: 0
        inSlope: 0
        outSlope: 0
        tangentMode: 0
      - time: .500000179
        value: 0
        inSlope: 0
        outSlope: 0
        tangentMode: 0
      - time: .51666683
        value: 0
        inSlope: 0
        outSlope: 0
        tangentMode: 0
      - time: .53333348
        value: 0
        inSlope: 0
        outSlope: 0
        tangentMode: 0
      - time: .550000131
        value: 0
        inSlope: 0
        outSlope: 0
        tangentMode: 0
      - time: .566666782
        value: 0
        inSlope: 0
        outSlope: 0
        tangentMode: 0
      - time: .583333433
        value: 0
        inSlope: 0
        outSlope: 0
        tangentMode: 0
      - time: .600000083
        value: 0
        inSlope: 0
        outSlope: 0
        tangentMode: 0
      - time: .616666734
        value: 0
        inSlope: 0
        outSlope: 0
        tangentMode: 0
      - time: .633333385
        value: 0
        inSlope: 0
        outSlope: 0
        tangentMode: 0
      - time: .650000036
        value: 0
        inSlope: 0
        outSlope: 0
        tangentMode: 0
      - time: .666666687
        value: 0
        inSlope: 0
        outSlope: 0
        tangentMode: 0
      - time: .683333337
        value: 0
        inSlope: 0
        outSlope: 0
        tangentMode: 0
      - time: .699999988
        value: 0
        inSlope: 0
        outSlope: 0
        tangentMode: 0
      - time: .716666639
        value: 0
        inSlope: 0
        outSlope: 0
        tangentMode: 0
      - time: .73333329
        value: 0
        inSlope: 0
        outSlope: 0
        tangentMode: 0
      - time: .74999994
        value: 0
        inSlope: 0
        outSlope: 0
        tangentMode: 0
      - time: .766666591
        value: 0
        inSlope: 0
        outSlope: 0
        tangentMode: 0
      - time: .783333242
        value: 0
        inSlope: 0
        outSlope: 0
        tangentMode: 0
      - time: .799999893
        value: 0
        inSlope: 0
        outSlope: 0
        tangentMode: 0
      - time: .816666543
        value: 0
        inSlope: 0
        outSlope: 0
        tangentMode: 0
      - time: .833333194
        value: 0
        inSlope: 0
        outSlope: 0
        tangentMode: 0
      - time: .849999845
        value: 0
        inSlope: 0
        outSlope: 0
        tangentMode: 0
      - time: .866666496
        value: 0
        inSlope: 0
        outSlope: 0
        tangentMode: 0
      - time: .883333147
        value: 0
        inSlope: 0
        outSlope: 0
        tangentMode: 0
      - time: .899999797
        value: 0
        inSlope: 0
        outSlope: 0
        tangentMode: 0
      - time: .916666448
        value: 0
        inSlope: 0
        outSlope: 0
        tangentMode: 0
      - time: .933333099
        value: 0
        inSlope: 0
        outSlope: 0
        tangentMode: 0
      - time: .94999975
        value: 0
        inSlope: 0
        outSlope: 0
        tangentMode: 0
      - time: .9666664
        value: 0
        inSlope: 0
        outSlope: 0
        tangentMode: 0
      - time: .983333051
        value: 0
        inSlope: 0
        outSlope: 0
        tangentMode: 0
      - time: .999999702
        value: 0
        inSlope: 0
        outSlope: 0
        tangentMode: 0
      - time: 1.01666641
        value: 0
        inSlope: 0
        outSlope: 0
        tangentMode: 0
      - time: 1.03333306
        value: 0
        inSlope: 0
        outSlope: 0
        tangentMode: 0
      - time: 1.04999971
        value: 0
        inSlope: 0
        outSlope: 0
        tangentMode: 0
      - time: 1.06666636
        value: 0
        inSlope: 0
        outSlope: 0
        tangentMode: 0
      - time: 1.08333302
        value: 0
        inSlope: 0
        outSlope: 0
        tangentMode: 0
      - time: 1.09999967
        value: 0
        inSlope: 0
        outSlope: 0
        tangentMode: 0
      - time: 1.11666632
        value: 0
        inSlope: 0
        outSlope: 0
        tangentMode: 0
      - time: 1.13333297
        value: 0
        inSlope: 0
        outSlope: 0
        tangentMode: 0
      - time: 1.14999962
        value: 0
        inSlope: 0
        outSlope: 0
        tangentMode: 0
      - time: 1.16666627
        value: 0
        inSlope: 0
        outSlope: 0
        tangentMode: 0
      - time: 1.18333292
        value: 0
        inSlope: 0
        outSlope: 0
        tangentMode: 0
      - time: 1.19999957
        value: 0
        inSlope: 0
        outSlope: 0
        tangentMode: 0
      - time: 1.21666622
        value: 0
        inSlope: 0
        outSlope: 0
        tangentMode: 0
      - time: 1.23333287
        value: 0
        inSlope: 0
        outSlope: 0
        tangentMode: 0
      - time: 1.24999952
        value: 0
        inSlope: 0
        outSlope: 0
        tangentMode: 0
      - time: 1.26666617
        value: 0
        inSlope: 0
        outSlope: 0
        tangentMode: 0
      - time: 1.28333282
        value: 0
        inSlope: 0
        outSlope: 0
        tangentMode: 0
      - time: 1.29999948
        value: 0
        inSlope: 0
        outSlope: 0
        tangentMode: 0
      - time: 1.31666613
        value: 0
        inSlope: 0
        outSlope: 0
        tangentMode: 0
      - time: 1.33333278
        value: 0
        inSlope: 0
        outSlope: 0
        tangentMode: 0
      - time: 1.34999943
        value: 0
        inSlope: 0
        outSlope: 0
        tangentMode: 0
      - time: 1.36666608
        value: 0
        inSlope: 0
        outSlope: 0
        tangentMode: 0
      - time: 1.38333273
        value: 0
        inSlope: 0
        outSlope: 0
        tangentMode: 0
      - time: 1.39999938
        value: 0
        inSlope: 0
        outSlope: 0
        tangentMode: 0
      - time: 1.41666603
        value: 0
        inSlope: 0
        outSlope: 0
        tangentMode: 0
      - time: 1.43333268
        value: 0
        inSlope: 0
        outSlope: 0
        tangentMode: 0
      - time: 1.44999933
        value: 0
        inSlope: 0
        outSlope: 0
        tangentMode: 0
      - time: 1.46666598
        value: 0
        inSlope: 0
        outSlope: 0
        tangentMode: 0
      - time: 1.48333263
        value: 0
        inSlope: 0
        outSlope: 0
        tangentMode: 0
      - time: 1.5
        value: 0
        inSlope: 0
        outSlope: 0
        tangentMode: 0
      m_PreInfinity: 2
      m_PostInfinity: 2
    attribute: m_LocalRotation.x
    path: Capsule
    classID: 4
    script: {fileID: 0}
  - curve:
      serializedVersion: 2
      m_Curve:
      - time: 0
        value: 0
        inSlope: 0
        outSlope: 0
        tangentMode: 0
      - time: .0166666675
        value: 0
        inSlope: 0
        outSlope: 0
        tangentMode: 0
      - time: .0333333351
        value: 0
        inSlope: 0
        outSlope: 0
        tangentMode: 0
      - time: .0500000045
        value: 0
        inSlope: 0
        outSlope: 0
        tangentMode: 0
      - time: .0666666701
        value: 0
        inSlope: 0
        outSlope: 0
        tangentMode: 0
      - time: .0833333358
        value: 0
        inSlope: 0
        outSlope: 0
        tangentMode: 0
      - time: .100000001
        value: 0
        inSlope: 0
        outSlope: 0
        tangentMode: 0
      - time: .116666667
        value: 0
        inSlope: 0
        outSlope: 0
        tangentMode: 0
      - time: .13333334
        value: 0
        inSlope: 0
        outSlope: 0
        tangentMode: 0
      - time: .150000006
        value: 0
        inSlope: 0
        outSlope: 0
        tangentMode: 0
      - time: .166666672
        value: 0
        inSlope: 0
        outSlope: 0
        tangentMode: 0
      - time: .183333337
        value: 0
        inSlope: 0
        outSlope: 0
        tangentMode: 0
      - time: .200000003
        value: 0
        inSlope: 0
        outSlope: 0
        tangentMode: 0
      - time: .216666669
        value: 0
        inSlope: 0
        outSlope: 0
        tangentMode: 0
      - time: .233333334
        value: 0
        inSlope: 0
        outSlope: 0
        tangentMode: 0
      - time: .25
        value: 0
        inSlope: 0
        outSlope: 0
        tangentMode: 0
      - time: .266666681
        value: 0
        inSlope: 0
        outSlope: 0
        tangentMode: 0
      - time: .283333361
        value: 0
        inSlope: 0
        outSlope: 0
        tangentMode: 0
      - time: .300000042
        value: 0
        inSlope: 0
        outSlope: 0
        tangentMode: 0
      - time: .316666722
        value: 0
        inSlope: 0
        outSlope: 0
        tangentMode: 0
      - time: .333333403
        value: 0
        inSlope: 0
        outSlope: 0
        tangentMode: 0
      - time: .350000083
        value: 0
        inSlope: 0
        outSlope: 0
        tangentMode: 0
      - time: .366666764
        value: 0
        inSlope: 0
        outSlope: 0
        tangentMode: 0
      - time: .383333445
        value: 0
        inSlope: 0
        outSlope: 0
        tangentMode: 0
      - time: .400000125
        value: 0
        inSlope: 0
        outSlope: 0
        tangentMode: 0
      - time: .416666806
        value: 0
        inSlope: 0
        outSlope: 0
        tangentMode: 0
      - time: .433333486
        value: 0
        inSlope: 0
        outSlope: 0
        tangentMode: 0
      - time: .450000167
        value: 0
        inSlope: 0
        outSlope: 0
        tangentMode: 0
      - time: .466666847
        value: 0
        inSlope: 0
        outSlope: 0
        tangentMode: 0
      - time: .483333528
        value: 0
        inSlope: 0
        outSlope: 0
        tangentMode: 0
      - time: .500000179
        value: 0
        inSlope: 0
        outSlope: 0
        tangentMode: 0
      - time: .51666683
        value: 0
        inSlope: 0
        outSlope: 0
        tangentMode: 0
      - time: .53333348
        value: 0
        inSlope: 0
        outSlope: 0
        tangentMode: 0
      - time: .550000131
        value: 0
        inSlope: 0
        outSlope: 0
        tangentMode: 0
      - time: .566666782
        value: 0
        inSlope: 0
        outSlope: 0
        tangentMode: 0
      - time: .583333433
        value: 0
        inSlope: 0
        outSlope: 0
        tangentMode: 0
      - time: .600000083
        value: 0
        inSlope: 0
        outSlope: 0
        tangentMode: 0
      - time: .616666734
        value: 0
        inSlope: 0
        outSlope: 0
        tangentMode: 0
      - time: .633333385
        value: 0
        inSlope: 0
        outSlope: 0
        tangentMode: 0
      - time: .650000036
        value: 0
        inSlope: 0
        outSlope: 0
        tangentMode: 0
      - time: .666666687
        value: 0
        inSlope: 0
        outSlope: 0
        tangentMode: 0
      - time: .683333337
        value: 0
        inSlope: 0
        outSlope: 0
        tangentMode: 0
      - time: .699999988
        value: 0
        inSlope: 0
        outSlope: 0
        tangentMode: 0
      - time: .716666639
        value: 0
        inSlope: 0
        outSlope: 0
        tangentMode: 0
      - time: .73333329
        value: 0
        inSlope: 0
        outSlope: 0
        tangentMode: 0
      - time: .74999994
        value: 0
        inSlope: 0
        outSlope: 0
        tangentMode: 0
      - time: .766666591
        value: 0
        inSlope: 0
        outSlope: 0
        tangentMode: 0
      - time: .783333242
        value: 0
        inSlope: 0
        outSlope: 0
        tangentMode: 0
      - time: .799999893
        value: 0
        inSlope: 0
        outSlope: 0
        tangentMode: 0
      - time: .816666543
        value: 0
        inSlope: 0
        outSlope: 0
        tangentMode: 0
      - time: .833333194
        value: 0
        inSlope: 0
        outSlope: 0
        tangentMode: 0
      - time: .849999845
        value: 0
        inSlope: 0
        outSlope: 0
        tangentMode: 0
      - time: .866666496
        value: 0
        inSlope: 0
        outSlope: 0
        tangentMode: 0
      - time: .883333147
        value: 0
        inSlope: 0
        outSlope: 0
        tangentMode: 0
      - time: .899999797
        value: 0
        inSlope: 0
        outSlope: 0
        tangentMode: 0
      - time: .916666448
        value: 0
        inSlope: 0
        outSlope: 0
        tangentMode: 0
      - time: .933333099
        value: 0
        inSlope: 0
        outSlope: 0
        tangentMode: 0
      - time: .94999975
        value: 0
        inSlope: 0
        outSlope: 0
        tangentMode: 0
      - time: .9666664
        value: 0
        inSlope: 0
        outSlope: 0
        tangentMode: 0
      - time: .983333051
        value: 0
        inSlope: 0
        outSlope: 0
        tangentMode: 0
      - time: .999999702
        value: 0
        inSlope: 0
        outSlope: 0
        tangentMode: 0
      - time: 1.01666641
        value: 0
        inSlope: 0
        outSlope: 0
        tangentMode: 0
      - time: 1.03333306
        value: 0
        inSlope: 0
        outSlope: 0
        tangentMode: 0
      - time: 1.04999971
        value: 0
        inSlope: 0
        outSlope: 0
        tangentMode: 0
      - time: 1.06666636
        value: 0
        inSlope: 0
        outSlope: 0
        tangentMode: 0
      - time: 1.08333302
        value: 0
        inSlope: 0
        outSlope: 0
        tangentMode: 0
      - time: 1.09999967
        value: 0
        inSlope: 0
        outSlope: 0
        tangentMode: 0
      - time: 1.11666632
        value: 0
        inSlope: 0
        outSlope: 0
        tangentMode: 0
      - time: 1.13333297
        value: 0
        inSlope: 0
        outSlope: 0
        tangentMode: 0
      - time: 1.14999962
        value: 0
        inSlope: 0
        outSlope: 0
        tangentMode: 0
      - time: 1.16666627
        value: 0
        inSlope: 0
        outSlope: 0
        tangentMode: 0
      - time: 1.18333292
        value: 0
        inSlope: 0
        outSlope: 0
        tangentMode: 0
      - time: 1.19999957
        value: 0
        inSlope: 0
        outSlope: 0
        tangentMode: 0
      - time: 1.21666622
        value: 0
        inSlope: 0
        outSlope: 0
        tangentMode: 0
      - time: 1.23333287
        value: 0
        inSlope: 0
        outSlope: 0
        tangentMode: 0
      - time: 1.24999952
        value: 0
        inSlope: 0
        outSlope: 0
        tangentMode: 0
      - time: 1.26666617
        value: 0
        inSlope: 0
        outSlope: 0
        tangentMode: 0
      - time: 1.28333282
        value: 0
        inSlope: 0
        outSlope: 0
        tangentMode: 0
      - time: 1.29999948
        value: 0
        inSlope: 0
        outSlope: 0
        tangentMode: 0
      - time: 1.31666613
        value: 0
        inSlope: 0
        outSlope: 0
        tangentMode: 0
      - time: 1.33333278
        value: 0
        inSlope: 0
        outSlope: 0
        tangentMode: 0
      - time: 1.34999943
        value: 0
        inSlope: 0
        outSlope: 0
        tangentMode: 0
      - time: 1.36666608
        value: 0
        inSlope: 0
        outSlope: 0
        tangentMode: 0
      - time: 1.38333273
        value: 0
        inSlope: 0
        outSlope: 0
        tangentMode: 0
      - time: 1.39999938
        value: 0
        inSlope: 0
        outSlope: 0
        tangentMode: 0
      - time: 1.41666603
        value: 0
        inSlope: 0
        outSlope: 0
        tangentMode: 0
      - time: 1.43333268
        value: 0
        inSlope: 0
        outSlope: 0
        tangentMode: 0
      - time: 1.44999933
        value: 0
        inSlope: 0
        outSlope: 0
        tangentMode: 0
      - time: 1.46666598
        value: 0
        inSlope: 0
        outSlope: 0
        tangentMode: 0
      - time: 1.48333263
        value: 0
        inSlope: 0
        outSlope: 0
        tangentMode: 0
      - time: 1.5
        value: 0
        inSlope: 0
        outSlope: 0
        tangentMode: 0
      m_PreInfinity: 2
      m_PostInfinity: 2
    attribute: m_LocalRotation.y
    path: Capsule
    classID: 4
    script: {fileID: 0}
  - curve:
      serializedVersion: 2
      m_Curve:
      - time: 0
        value: .229791701
        inSlope: -.142479837
        outSlope: -.142479837
        tangentMode: 0
      - time: .0166666675
        value: .227417037
        inSlope: -.142520517
        outSlope: -.142520517
        tangentMode: 0
      - time: .0333333351
        value: .225041017
        inSlope: -.14259471
        outSlope: -.14259471
        tangentMode: 0
      - time: .0500000045
        value: .222663879
        inSlope: -.142674297
        outSlope: -.142674297
        tangentMode: 0
      - time: .0666666701
        value: .220285207
        inSlope: -.142760143
        outSlope: -.142760143
        tangentMode: 0
      - time: .0833333358
        value: .217905208
        inSlope: -.142838821
        outSlope: -.142838821
        tangentMode: 0
      - time: .100000001
        value: .215523914
        inSlope: -.142909005
        outSlope: -.142909005
        tangentMode: 0
      - time: .116666667
        value: .213141575
        inSlope: -.142985404
        outSlope: -.142985404
        tangentMode: 0
      - time: .13333334
        value: .210757732
        inSlope: -.143068105
        outSlope: -.143068105
        tangentMode: 0
      - time: .150000006
        value: .208372638
        inSlope: -.143135652
        outSlope: -.143135652
        tangentMode: 0
      - time: .166666672
        value: .205986544
        inSlope: -.14320986
        outSlope: -.14320986
        tangentMode: 0
      - time: .183333337
        value: .203598976
        inSlope: -.143290326
        outSlope: -.143290326
        tangentMode: 0
      - time: .200000003
        value: .201210201
        inSlope: -.143355146
        outSlope: -.143355146
        tangentMode: 0
      - time: .216666669
        value: .198820472
        inSlope: -.143426672
        outSlope: -.143426672
        tangentMode: 0
      - time: .233333334
        value: .196429312
        inSlope: -.143504009
        outSlope: -.143504009
        tangentMode: 0
      - time: .25
        value: .194037005
        inSlope: -.143573672
        outSlope: -.143573672
        tangentMode: 0
      - time: .266666681
        value: .191643521
        inSlope: -.14363575
        outSlope: -.14363575
        tangentMode: 0
      - time: .283333361
        value: .189249143
        inSlope: -.143703699
        outSlope: -.143703699
        tangentMode: 0
      - time: .300000042
        value: .186853394
        inSlope: -.143777907
        outSlope: -.143777907
        tangentMode: 0
      - time: .316666722
        value: .184456542
        inSlope: -.143836915
        outSlope: -.143836915
        tangentMode: 0
      - time: .333333403
        value: .182058826
        inSlope: -.143902183
        outSlope: -.143902183
        tangentMode: 0
      - time: .350000083
        value: .179659799
        inSlope: -.143973708
        outSlope: -.143973708
        tangentMode: 0
      - time: .366666764
        value: .177259699
        inSlope: -.144030929
        outSlope: -.144030929
        tangentMode: 0
      - time: .383333445
        value: .174858764
        inSlope: -.144093513
        outSlope: -.144093513
        tangentMode: 0
      - time: .400000125
        value: .172456577
        inSlope: -.144162357
        outSlope: -.144162357
        tangentMode: 0
      - time: .416666806
        value: .170053348
        inSlope: -.144223601
        outSlope: -.144223601
        tangentMode: 0
      - time: .433333486
        value: .16764912
        inSlope: -.144269645
        outSlope: -.144269645
        tangentMode: 0
      - time: .450000167
        value: .165244356
        inSlope: -.144329548
        outSlope: -.144329548
        tangentMode: 0
      - time: .466666847
        value: .162838131
        inSlope: -.144401968
        outSlope: -.144401968
        tangentMode: 0
      - time: .483333528
        value: .160430953
        inSlope: -.144452602
        outSlope: -.144452602
        tangentMode: 0
      - time: .500000179
        value: .158023044
        inSlope: -.144509956
        outSlope: -.144509956
        tangentMode: 0
      - time: .51666683
        value: .155613959
        inSlope: -.144572541
        outSlope: -.144572541
        tangentMode: 0
      - time: .53333348
        value: .153203964
        inSlope: -.144620374
        outSlope: -.144620374
        tangentMode: 0
      - time: .550000131
        value: .150793284
        inSlope: -.144675359
        outSlope: -.144675359
        tangentMode: 0
      - time: .566666782
        value: .148381457
        inSlope: -.144735709
        outSlope: -.144735709
        tangentMode: 0
      - time: .583333433
        value: .145968765
        inSlope: -.144780859
        outSlope: -.144780859
        tangentMode: 0
      - time: .600000083
        value: .143555433
        inSlope: -.144832715
        outSlope: -.144832715
        tangentMode: 0
      - time: .616666734
        value: .141141012
        inSlope: -.144890383
        outSlope: -.144890383
        tangentMode: 0
      - time: .633333385
        value: .138725758
        inSlope: -.144940451
        outSlope: -.144940451
        tangentMode: 0
      - time: .650000036
        value: .136309668
        inSlope: -.144982472
        outSlope: -.144982472
        tangentMode: 0
      - time: .666666687
        value: .133893013
        inSlope: -.145030752
        outSlope: -.145030752
        tangentMode: 0
      - time: .683333337
        value: .131475314
        inSlope: -.14508529
        outSlope: -.14508529
        tangentMode: 0
      - time: .699999988
        value: .129056841
        inSlope: -.145124629
        outSlope: -.145124629
        tangentMode: 0
      - time: .716666639
        value: .126637831
        inSlope: -.145170227
        outSlope: -.145170227
        tangentMode: 0
      - time: .73333329
        value: .124217838
        inSlope: -.145221859
        outSlope: -.145221859
        tangentMode: 0
      - time: .74999994
        value: .121797107
        inSlope: -.145265892
        outSlope: -.145265892
        tangentMode: 0
      - time: .766666591
        value: .119375646
        inSlope: -.145302102
        outSlope: -.145302102
        tangentMode: 0
      - time: .783333242
        value: .116953708
        inSlope: -.145344123
        outSlope: -.145344123
        tangentMode: 0
      - time: .799999893
        value: .114530846
        inSlope: -.145392403
        outSlope: -.145392403
        tangentMode: 0
      - time: .816666543
        value: .112107299
        inSlope: -.145425931
        outSlope: -.145425931
        tangentMode: 0
      - time: .833333194
        value: .10968332
        inSlope: -.145465493
        outSlope: -.145465493
        tangentMode: 0
      - time: .849999845
        value: .107258454
        inSlope: -.145511314
        outSlope: -.145511314
        tangentMode: 0
      - time: .866666496
        value: .104832947
        inSlope: -.14554216
        outSlope: -.14554216
        tangentMode: 0
      - time: .883333147
        value: .102407053
        inSlope: -.14557904
        outSlope: -.14557904
        tangentMode: 0
      - time: .899999797
        value: .0999803171
        inSlope: -.145622179
        outSlope: -.145622179
        tangentMode: 0
      - time: .916666448
        value: .097552985
        inSlope: -.145657718
        outSlope: -.145657718
        tangentMode: 0
      - time: .933333099
        value: .0951250643
        inSlope: -.145684987
        outSlope: -.145684987
        tangentMode: 0
      - time: .94999975
        value: .0926968232
        inSlope: -.145718291
        outSlope: -.145718291
        tangentMode: 0
      - time: .9666664
        value: .0902677923
        inSlope: -.145758078
        outSlope: -.145758078
        tangentMode: 0
      - time: .983333051
        value: .0878382251
        inSlope: -.145775512
        outSlope: -.145775512
        tangentMode: 0
      - time: .999999702
        value: .0854086131
        inSlope: -.145813465
        outSlope: -.145813465
        tangentMode: 0
      - time: 1.01666641
        value: .0829777718
        inSlope: -.145850807
        outSlope: -.145850807
        tangentMode: 0
      - time: 1.03333306
        value: .0805469155
        inSlope: -.145865813
        outSlope: -.145865813
        tangentMode: 0
      - time: 1.04999971
        value: .0781155825
        inSlope: -.145901129
        outSlope: -.145901129
        tangentMode: 0
      - time: 1.06666636
        value: .075683549
        inSlope: -.145935774
        outSlope: -.145935774
        tangentMode: 0
      - time: 1.08333302
        value: .0732510611
        inSlope: -.145955443
        outSlope: -.145955443
        tangentMode: 0
      - time: 1.09999967
        value: .0708183721
        inSlope: -.145981148
        outSlope: -.145981148
        tangentMode: 0
      - time: 1.11666632
        value: .0683850273
        inSlope: -.146012887
        outSlope: -.146012887
        tangentMode: 0
      - time: 1.13333297
        value: .0659512803
        inSlope: -.146036804
        outSlope: -.146036804
        tangentMode: 0
      - time: 1.14999962
        value: .0635171384
        inSlope: -.146053016
        outSlope: -.146053016
        tangentMode: 0
      - time: 1.16666627
        value: .0610828511
        inSlope: -.146075249
        outSlope: -.146075249
        tangentMode: 0
      - time: 1.18333292
        value: .0586479679
        inSlope: -.14610374
        outSlope: -.14610374
        tangentMode: 0
      - time: 1.19999957
        value: .0562127307
        inSlope: -.146117151
        outSlope: -.146117151
        tangentMode: 0
      - time: 1.21666622
        value: .0537774004
        inSlope: -.146136612
        outSlope: -.146136612
        tangentMode: 0
      - time: 1.23333287
        value: .051341515
        inSlope: -.14616254
        outSlope: -.14616254
        tangentMode: 0
      - time: 1.24999952
        value: .0489053205
        inSlope: -.146173373
        outSlope: -.146173373
        tangentMode: 0
      - time: 1.26666617
        value: .0464690737
        inSlope: -.14619036
        outSlope: -.14619036
        tangentMode: 0
      - time: 1.28333282
        value: .0440323129
        inSlope: -.14621371
        outSlope: -.14621371
        tangentMode: 0
      - time: 1.29999948
        value: .0415952876
        inSlope: -.146229029
        outSlope: -.146229029
        tangentMode: 0
      - time: 1.31666613
        value: .0391580164
        inSlope: -.146236181
        outSlope: -.146236181
        tangentMode: 0
      - time: 1.33333278
        value: .0367207527
        inSlope: -.146249712
        outSlope: -.146249712
        tangentMode: 0
      - time: 1.34999943
        value: .0342830308
        inSlope: -.14626959
        outSlope: -.14626959
        tangentMode: 0
      - time: 1.36666608
        value: .0318451039
        inSlope: -.146274239
        outSlope: -.146274239
        tangentMode: 0
      - time: 1.38333273
        value: .0294072274
        inSlope: -.146285191
        outSlope: -.146285191
        tangentMode: 0
      - time: 1.39999938
        value: .0269689355
        inSlope: -.146302402
        outSlope: -.146302402
        tangentMode: 0
      - time: 1.41666603
        value: .0245304853
        inSlope: -.146304414
        outSlope: -.146304414
        tangentMode: 0
      - time: 1.43333268
        value: .0220921263
        inSlope: -.146312743
        outSlope: -.146312743
        tangentMode: 0
      - time: 1.44999933
        value: .0196533985
        inSlope: -.146327317
        outSlope: -.146327317
        tangentMode: 0
      - time: 1.46666598
        value: .0172145534
        inSlope: -.146333948
        outSlope: -.146333948
        tangentMode: 0
      - time: 1.48333263
        value: .0147756049
        inSlope: -.146329373
        outSlope: -.146329373
        tangentMode: 0
      - time: 1.5
        value: .0123368073
        inSlope: -.146321714
        outSlope: -.146321714
        tangentMode: 0
      m_PreInfinity: 2
      m_PostInfinity: 2
    attribute: m_LocalRotation.z
    path: Capsule
    classID: 4
    script: {fileID: 0}
  - curve:
      serializedVersion: 2
      m_Curve:
      - time: 0
        value: -.973239839
        inSlope: -.0334560871
        outSlope: -.0334560871
        tangentMode: 0
      - time: .0166666675
        value: -.973797441
        inSlope: -.0332844257
        outSlope: -.0332844257
        tangentMode: 0
      - time: .0333333351
        value: -.97434932
        inSlope: -.0329357386
        outSlope: -.0329357386
        tangentMode: 0
      - time: .0500000045
        value: -.974895298
        inSlope: -.0325852633
        outSlope: -.0325852633
        tangentMode: 0
      - time: .0666666701
        value: -.975435495
        inSlope: -.0322383679
        outSlope: -.0322383679
        tangentMode: 0
      - time: .0833333358
        value: -.975969911
        inSlope: -.0318914689
        outSlope: -.0318914689
        tangentMode: 0
      - time: .100000001
        value: -.976498544
        inSlope: -.0315427817
        outSlope: -.0315427817
        tangentMode: 0
      - time: .116666667
        value: -.977021337
        inSlope: -.0311940871
        outSlope: -.0311940871
        tangentMode: 0
      - time: .13333334
        value: -.977538347
        inSlope: -.0308453999
        outSlope: -.0308453999
        tangentMode: 0
      - time: .150000006
        value: -.978049517
        inSlope: -.0304949302
        outSlope: -.0304949302
        tangentMode: 0
      - time: .166666672
        value: -.978554845
        inSlope: -.0301462431
        outSlope: -.0301462431
        tangentMode: 0
      - time: .183333337
        value: -.979054391
        inSlope: -.0297975559
        outSlope: -.0297975559
        tangentMode: 0
      - time: .200000003
        value: -.979548097
        inSlope: -.0294452924
        outSlope: -.0294452924
        tangentMode: 0
      - time: .216666669
        value: -.980035901
        inSlope: -.0290966053
        outSlope: -.0290966053
        tangentMode: 0
      - time: .233333334
        value: -.980517983
        inSlope: -.0287497062
        outSlope: -.0287497062
        tangentMode: 0
      - time: .25
        value: -.980994225
        inSlope: -.0283992179
        outSlope: -.0283992179
        tangentMode: 0
      - time: .266666681
        value: -.981464624
        inSlope: -.0280469432
        outSlope: -.0280469432
        tangentMode: 0
      - time: .283333361
        value: -.981929123
        inSlope: -.0276946798
        outSlope: -.0276946798
        tangentMode: 0
      - time: .300000042
        value: -.982387781
        inSlope: -.0273459926
        outSlope: -.0273459926
        tangentMode: 0
      - time: .316666722
        value: -.982840657
        inSlope: -.0269955173
        outSlope: -.0269955173
        tangentMode: 0
      - time: .333333403
        value: -.983287632
        inSlope: -.026645042
        outSlope: -.026645042
        tangentMode: 0
      - time: .350000083
        value: -.983728826
        inSlope: -.0262945667
        outSlope: -.0262945667
        tangentMode: 0
      - time: .366666764
        value: -.984164119
        inSlope: -.0259405151
        outSlope: -.0259405151
        tangentMode: 0
      - time: .383333445
        value: -.984593511
        inSlope: -.0255900398
        outSlope: -.0255900398
        tangentMode: 0
      - time: .400000125
        value: -.985017121
        inSlope: -.0252395663
        outSlope: -.0252395663
        tangentMode: 0
      - time: .416666806
        value: -.98543483
        inSlope: -.024889091
        outSlope: -.024889091
        tangentMode: 0
      - time: .433333486
        value: -.985846758
        inSlope: -.0245350394
        outSlope: -.0245350394
        tangentMode: 0
      - time: .450000167
        value: -.986252666
        inSlope: -.0241809878
        outSlope: -.0241809878
        tangentMode: 0
      - time: .466666847
        value: -.986652792
        inSlope: -.0238323007
        outSlope: -.0238323007
        tangentMode: 0
      - time: .483333528
        value: -.987047076
        inSlope: -.0234782696
        outSlope: -.0234782696
        tangentMode: 0
      - time: .500000179
        value: -.9874354
        inSlope: -.0231260285
        outSlope: -.0231260285
        tangentMode: 0
      - time: .51666683
        value: -.987817943
        inSlope: -.0227755532
        outSlope: -.0227755532
        tangentMode: 0
      - time: .53333348
        value: -.988194585
        inSlope: -.0224215016
        outSlope: -.0224215016
        tangentMode: 0
      - time: .550000131
        value: -.988565326
        inSlope: -.0220692363
        outSlope: -.0220692363
        tangentMode: 0
      - time: .566666782
        value: -.988930225
        inSlope: -.0217169728
        outSlope: -.0217169728
        tangentMode: 0
      - time: .583333433
        value: -.989289224
        inSlope: -.0213611331
        outSlope: -.0213611331
        tangentMode: 0
      - time: .600000083
        value: -.989642262
        inSlope: -.0210088696
        outSlope: -.0210088696
        tangentMode: 0
      - time: .616666734
        value: -.989989519
        inSlope: -.0206566043
        outSlope: -.0206566043
        tangentMode: 0
      - time: .633333385
        value: -.990330815
        inSlope: -.0203025527
        outSlope: -.0203025527
        tangentMode: 0
      - time: .650000036
        value: -.99066627
        inSlope: -.0199485011
        outSlope: -.0199485011
        tangentMode: 0
      - time: .666666687
        value: -.990995765
        inSlope: -.0195944495
        outSlope: -.0195944495
        tangentMode: 0
      - time: .683333337
        value: -.991319418
        inSlope: -.0192421861
        outSlope: -.0192421861
        tangentMode: 0
      - time: .699999988
        value: -.99163717
        inSlope: -.0188881345
        outSlope: -.0188881345
        tangentMode: 0
      - time: .716666639
        value: -.991949022
        inSlope: -.0185340829
        outSlope: -.0185340829
        tangentMode: 0
      - time: .73333329
        value: -.992254972
        inSlope: -.0181800295
        outSlope: -.0181800295
        tangentMode: 0
      - time: .74999994
        value: -.992555022
        inSlope: -.0178259779
        outSlope: -.0178259779
        tangentMode: 0
      - time: .766666591
        value: -.992849171
        inSlope: -.0174701381
        outSlope: -.0174701381
        tangentMode: 0
      - time: .783333242
        value: -.99313736
        inSlope: -.0171160866
        outSlope: -.0171160866
        tangentMode: 0
      - time: .799999893
        value: -.993419707
        inSlope: -.0167620331
        outSlope: -.0167620331
        tangentMode: 0
      - time: .816666543
        value: -.993696094
        inSlope: -.0164061934
        outSlope: -.0164061934
        tangentMode: 0
      - time: .833333194
        value: -.993966579
        inSlope: -.0160521418
        outSlope: -.0160521418
        tangentMode: 0
      - time: .849999845
        value: -.994231164
        inSlope: -.0156980902
        outSlope: -.0156980902
        tangentMode: 0
      - time: .866666496
        value: -.994489849
        inSlope: -.0153422505
        outSlope: -.0153422505
        tangentMode: 0
      - time: .883333147
        value: -.994742572
        inSlope: -.0149864107
        outSlope: -.0149864107
        tangentMode: 0
      - time: .899999797
        value: -.994989395
        inSlope: -.0146323582
        outSlope: -.0146323582
        tangentMode: 0
      - time: .916666448
        value: -.995230317
        inSlope: -.0142783057
        outSlope: -.0142783057
        tangentMode: 0
      - time: .933333099
        value: -.995465338
        inSlope: -.013922466
        outSlope: -.013922466
        tangentMode: 0
      - time: .94999975
        value: -.995694399
        inSlope: -.0135666262
        outSlope: -.0135666262
        tangentMode: 0
      - time: .9666664
        value: -.995917559
        inSlope: -.0132107865
        outSlope: -.0132107865
        tangentMode: 0
      - time: .983333051
        value: -.996134758
        inSlope: -.0128531577
        outSlope: -.0128531577
        tangentMode: 0
      - time: .999999702
        value: -.996345997
        inSlope: -.0124990838
        outSlope: -.0124990838
        tangentMode: 0
      - time: 1.01666641
        value: -.996551394
        inSlope: -.0121450312
        outSlope: -.0121450312
        tangentMode: 0
      - time: 1.03333306
        value: -.996750832
        inSlope: -.0117874257
        outSlope: -.0117874257
        tangentMode: 0
      - time: 1.04999971
        value: -.996944308
        inSlope: -.011431586
        outSlope: -.011431586
        tangentMode: 0
      - time: 1.06666636
        value: -.997131884
        inSlope: -.0110775344
        outSlope: -.0110775344
        tangentMode: 0
      - time: 1.08333302
        value: -.997313559
        inSlope: -.0107199056
        outSlope: -.0107199056
        tangentMode: 0
      - time: 1.09999967
        value: -.997489214
        inSlope: -.0103640649
        outSlope: -.0103640649
        tangentMode: 0
      - time: 1.11666632
        value: -.997659028
        inSlope: -.0100082252
        outSlope: -.0100082252
        tangentMode: 0
      - time: 1.13333297
        value: -.997822821
        inSlope: -.00965238549
        outSlope: -.00965238549
        tangentMode: 0
      - time: 1.14999962
        value: -.997980773
        inSlope: -.00929654576
        outSlope: -.00929654576
        tangentMode: 0
      - time: 1.16666627
        value: -.998132706
        inSlope: -.00893891696
        outSlope: -.00893891696
        tangentMode: 0
      - time: 1.18333292
        value: -.998278737
        inSlope: -.00858307723
        outSlope: -.00858307723
        tangentMode: 0
      - time: 1.19999957
        value: -.998418808
        inSlope: -.00822723657
        outSlope: -.00822723657
        tangentMode: 0
      - time: 1.21666622
        value: -.998552978
        inSlope: -.0078696087
        outSlope: -.0078696087
        tangentMode: 0
      - time: 1.23333287
        value: -.998681128
        inSlope: -.00751376897
        outSlope: -.00751376897
        tangentMode: 0
      - time: 1.24999952
        value: -.998803437
        inSlope: -.00715792831
        outSlope: -.00715792831
        tangentMode: 0
      - time: 1.26666617
        value: -.998919725
        inSlope: -.00680030044
        outSlope: -.00680030044
        tangentMode: 0
      - time: 1.28333282
        value: -.999030113
        inSlope: -.00644446071
        outSlope: -.00644446071
        tangentMode: 0
      - time: 1.29999948
        value: -.999134541
        inSlope: -.00608683191
        outSlope: -.00608683191
        tangentMode: 0
      - time: 1.31666613
        value: -.999233007
        inSlope: -.00573099218
        outSlope: -.00573099218
        tangentMode: 0
      - time: 1.33333278
        value: -.999325573
        inSlope: -.00537515199
        outSlope: -.00537515199
        tangentMode: 0
      - time: 1.34999943
        value: -.999412179
        inSlope: -.00501752365
        outSlope: -.00501752365
        tangentMode: 0
      - time: 1.36666608
        value: -.999492824
        inSlope: -.00465989579
        outSlope: -.00465989579
        tangentMode: 0
      - time: 1.38333273
        value: -.999567509
        inSlope: -.00430405512
        outSlope: -.00430405512
        tangentMode: 0
      - time: 1.39999938
        value: -.999636292
        inSlope: -.00394642726
        outSlope: -.00394642726
        tangentMode: 0
      - time: 1.41666603
        value: -.999699056
        inSlope: -.00358879892
        outSlope: -.00358879892
        tangentMode: 0
      - time: 1.43333268
        value: -.999755919
        inSlope: -.00323474733
        outSlope: -.00323474733
        tangentMode: 0
      - time: 1.44999933
        value: -.999806881
        inSlope: -.002877119
        outSlope: -.002877119
        tangentMode: 0
      - time: 1.46666598
        value: -.999851823
        inSlope: -.00251949066
        outSlope: -.00251949066
        tangentMode: 0
      - time: 1.48333263
        value: -.999890864
        inSlope: -.00216181995
        outSlope: -.00216181995
        tangentMode: 0
      - time: 1.5
        value: -.999923885
        inSlope: -.00198117527
        outSlope: -.00198117527
        tangentMode: 0
      m_PreInfinity: 2
      m_PostInfinity: 2
    attribute: m_LocalRotation.w
    path: Capsule
    classID: 4
    script: {fileID: 0}
  - curve:
      serializedVersion: 2
      m_Curve:
      - time: 0
        value: 1
        inSlope: Infinity
        outSlope: Infinity
        tangentMode: 31
      - time: 3.6833334
        value: 1
        inSlope: Infinity
        outSlope: Infinity
        tangentMode: 31
      - time: 3.7166667
        value: 0
        inSlope: Infinity
        outSlope: Infinity
        tangentMode: 31
      m_PreInfinity: 2
      m_PostInfinity: 2
    attribute: m_IsActive
    path: Capsule
    classID: 1
    script: {fileID: 0}
  m_EulerEditorCurves:
  - curve:
      serializedVersion: 2
      m_Curve:
      - time: 0
        value: 0
        inSlope: 0
        outSlope: 0
        tangentMode: 10
      - time: 1.5
        value: 0
        inSlope: 0
        outSlope: 0
        tangentMode: 10
      m_PreInfinity: 2
      m_PostInfinity: 2
    attribute: localEulerAnglesBaked.x
    path: Capsule
    classID: 4
    script: {fileID: 0}
  - curve:
      serializedVersion: 2
      m_Curve:
      - time: 0
        value: 0
        inSlope: 0
        outSlope: 0
        tangentMode: 10
      - time: 1.5
        value: 0
        inSlope: 0
        outSlope: 0
        tangentMode: 10
      m_PreInfinity: 2
      m_PostInfinity: 2
    attribute: localEulerAnglesBaked.y
    path: Capsule
    classID: 4
    script: {fileID: 0}
  - curve:
      serializedVersion: 2
      m_Curve:
      - time: 0
        value: 333.430359
        inSlope: 16.7705898
        outSlope: 16.7705898
        tangentMode: 10
      - time: 1.5
        value: 358.586243
        inSlope: 16.7705898
        outSlope: 16.7705898
        tangentMode: 10
      m_PreInfinity: 2
      m_PostInfinity: 2
    attribute: localEulerAnglesBaked.z
    path: Capsule
    classID: 4
    script: {fileID: 0}
  m_HasGenericRootTransform: 0
  m_HasMotionFloatCurves: 0
  m_GenerateMotionCurves: 0
  m_Events: []
